Check out this sick analysis
…
data_ad_cost <- read_csv("~/STA 518/Final Project/Portfolio/Final Proposal/Final Project/Cost per Super bowl ad 2000-2020 - Sheet1 (1).csv")

## 
## ── Column specification ────────────────────────────────────────────────────────
## cols(
##   year = col_double(),
##   cost_per_thirty_seconds = col_character(),
##   cost_per_minute = col_character()
## )

# merge data and data_ad_cost together 
total <- inner_join(data, data_ad_cost, by="year")
total

## # A tibble: 243 x 15
##     year brand funny show_product_qu… patriotic celebrity danger animals use_sex
##    <dbl> <chr> <lgl> <lgl>            <lgl>     <lgl>     <lgl>  <lgl>   <lgl>  
##  1  2018 Toyo… FALSE FALSE            FALSE     FALSE     FALSE  FALSE   FALSE  
##  2  2006 Bud … TRUE  FALSE            FALSE     FALSE     TRUE   TRUE    FALSE  
##  3  2018 Hynu… FALSE TRUE             FALSE     FALSE     FALSE  FALSE   FALSE  
##  4  2003 Bud … TRUE  TRUE             FALSE     FALSE     TRUE   TRUE    TRUE   
##  5  2020 Toyo… TRUE  TRUE             FALSE     TRUE      TRUE   TRUE    FALSE  
##  6  2020 Coca… TRUE  FALSE            FALSE     TRUE      FALSE  TRUE    FALSE  
##  7  2020 Kia   FALSE FALSE            FALSE     TRUE      FALSE  FALSE   FALSE  
##  8  2020 Hynu… TRUE  TRUE             FALSE     TRUE      FALSE  TRUE    FALSE  
##  9  2020 Budw… FALSE TRUE             TRUE      TRUE      TRUE   FALSE   FALSE  
## 10  2010 Hynu… FALSE TRUE             TRUE      FALSE     FALSE  FALSE   FALSE  
## # … with 233 more rows, and 6 more variables: ad_time <dbl>, category <chr>,
## #   gender <chr>, diversity <lgl>, cost_per_thirty_seconds <chr>,
## #   cost_per_minute <chr>
…
