Super Bowl Ad Final Project: Circle back
…
Circle back

In our final project, we will investigate superbowl ads from 2000 to 2020 using a data set from Five Thirty Eight. We will make a website or application that displays trends of brands’ advertisement strategies over time and use predictive modeling/ simulations to anticipate which direction superbowl ads will go in the future.

# A tibble: 243 × 15
    year brand    funny show_…¹ patri…² celeb…³ danger animals use_sex
   <dbl> <chr>    <lgl> <lgl>   <lgl>   <lgl>   <lgl>  <lgl>   <lgl>  
 1  2018 Toyota   FALSE FALSE   FALSE   FALSE   FALSE  FALSE   FALSE  
 2  2006 Bud Lig… TRUE  FALSE   FALSE   FALSE   TRUE   TRUE    FALSE  
 3  2018 Hynudai  FALSE TRUE    FALSE   FALSE   FALSE  FALSE   FALSE  
 4  2003 Bud Lig… TRUE  TRUE    FALSE   FALSE   TRUE   TRUE    TRUE   
 5  2020 Toyota   TRUE  TRUE    FALSE   TRUE    TRUE   TRUE    FALSE  
 6  2020 Coca-Co… TRUE  FALSE   FALSE   TRUE    FALSE  TRUE    FALSE  
 7  2020 Kia      FALSE FALSE   FALSE   TRUE    FALSE  FALSE   FALSE  
 8  2020 Hynudai  TRUE  TRUE    FALSE   TRUE    FALSE  TRUE    FALSE  
 9  2020 Budweis… FALSE TRUE    TRUE    TRUE    TRUE   FALSE   FALSE  
10  2010 Hynudai  FALSE TRUE    TRUE    FALSE   FALSE  FALSE   FALSE  
# … with 233 more rows, 6 more variables: ad_time <dbl>,
#   category <chr>, gender <chr>, diversity <lgl>,
#   cost_per_thirty_seconds <chr>, cost_per_minute <chr>, and
#   abbreviated variable names ¹​show_product_quickly, ²​patriotic,
#   ³​celebrity
# ℹ Use `print(n = ...)` to see more rows, and `colnames()` to see all variable names
…
# A tibble: 243 × 19
# Groups:   year [21]
    year brand    funny show_…¹ patri…² celeb…³ danger animals use_sex
   <dbl> <chr>    <lgl> <lgl>   <lgl>   <lgl>   <lgl>  <lgl>   <lgl>  
 1  2018 Toyota   FALSE FALSE   FALSE   FALSE   FALSE  FALSE   FALSE  
 2  2006 Bud Lig… TRUE  FALSE   FALSE   FALSE   TRUE   TRUE    FALSE  
 3  2018 Hynudai  FALSE TRUE    FALSE   FALSE   FALSE  FALSE   FALSE  
 4  2003 Bud Lig… TRUE  TRUE    FALSE   FALSE   TRUE   TRUE    TRUE   
 5  2020 Toyota   TRUE  TRUE    FALSE   TRUE    TRUE   TRUE    FALSE  
 6  2020 Coca-Co… TRUE  FALSE   FALSE   TRUE    FALSE  TRUE    FALSE  
 7  2020 Kia      FALSE FALSE   FALSE   TRUE    FALSE  FALSE   FALSE  
 8  2020 Hynudai  TRUE  TRUE    FALSE   TRUE    FALSE  TRUE    FALSE  
 9  2020 Budweis… FALSE TRUE    TRUE    TRUE    TRUE   FALSE   FALSE  
10  2010 Hynudai  FALSE TRUE    TRUE    FALSE   FALSE  FALSE   FALSE  
# … with 233 more rows, 10 more variables: ad_time <dbl>,
#   category <chr>, gender <chr>, diversity <lgl>,
#   cost_per_thirty_seconds <dbl>, cost_per_minute <dbl>,
#   cost_per_second <dbl>, cost_of_ad <dbl>,
#   cost_of_ad_in_millions <dbl>, cost_per_second_in_thousands <dbl>,
#   and abbreviated variable names ¹​show_product_quickly, ²​patriotic,
#   ³​celebrity
# ℹ Use `print(n = ...)` to see more rows, and `colnames()` to see all variable names
…
